2018-11-04 10:27:03 DEBUG MainController:36 - In userexists method
2018-11-04 10:27:03 ERROR MainController:50 - Error userexists method- no user found
2018-11-04 10:27:03 DEBUG MainController:36 - In userexists method
2018-11-04 10:27:03 ERROR MainController:50 - Error userexists method- no user found
2018-11-04 10:27:03 DEBUG MainController:36 - In userexists method
2018-11-04 10:27:03 ERROR MainController:50 - Error userexists method- no user found
2018-11-04 10:27:04 DEBUG MainController:36 - In userexists method
2018-11-04 10:27:04 ERROR MainController:50 - Error userexists method- no user found
2018-11-04 10:27:04 DEBUG MainController:36 - In userexists method
2018-11-04 10:27:04 ERROR MainController:50 - Error userexists method- no user found
2018-11-04 10:27:04 DEBUG MainController:36 - In userexists method
2018-11-04 10:27:04 ERROR MainController:50 - Error userexists method- no user found
2018-11-04 10:27:04 DEBUG MainController:36 - In userexists method
2018-11-04 10:27:04 ERROR MainController:50 - Error userexists method- no user found
2018-11-04 10:27:04 DEBUG MainController:36 - In userexists method
2018-11-04 10:27:04 ERROR MainController:50 - Error userexists method- no user found
2018-11-04 10:27:05 DEBUG MainController:36 - In userexists method
2018-11-04 10:27:05 ERROR MainController:50 - Error userexists method- no user found
2018-11-04 10:27:05 DEBUG MainController:36 - In userexists method
2018-11-04 10:27:05 ERROR MainController:50 - Error userexists method- no user found
2018-11-04 10:27:05 DEBUG MainController:36 - In userexists method
2018-11-04 10:27:05 ERROR MainController:50 - Error userexists method- no user found
2018-11-04 10:27:05 DEBUG MainController:36 - In userexists method
2018-11-04 10:27:05 ERROR MainController:50 - Error userexists method- no user found
2018-11-04 10:27:05 DEBUG MainController:36 - In userexists method
2018-11-04 10:27:05 ERROR MainController:50 - Error userexists method- no user found
2018-11-04 10:27:06 DEBUG MainController:36 - In userexists method
2018-11-04 10:27:06 ERROR MainController:50 - Error userexists method- no user found
