2018-11-04 10:26:59 DEBUG MainController:36 - In userexists method
2018-11-04 10:26:59 ERROR MainController:50 - Error userexists method- no user found
2018-11-04 10:27:00 DEBUG MainController:36 - In userexists method
2018-11-04 10:27:00 ERROR MainController:50 - Error userexists method- no user found
2018-11-04 10:27:00 DEBUG MainController:36 - In userexists method
2018-11-04 10:27:00 ERROR MainController:50 - Error userexists method- no user found
2018-11-04 10:27:00 DEBUG MainController:36 - In userexists method
2018-11-04 10:27:00 ERROR MainController:50 - Error userexists method- no user found
2018-11-04 10:27:01 DEBUG MainController:36 - In userexists method
2018-11-04 10:27:01 ERROR MainController:50 - Error userexists method- no user found
2018-11-04 10:27:01 DEBUG MainController:36 - In userexists method
2018-11-04 10:27:01 ERROR MainController:50 - Error userexists method- no user found
2018-11-04 10:27:01 DEBUG MainController:36 - In userexists method
2018-11-04 10:27:01 ERROR MainController:50 - Error userexists method- no user found
2018-11-04 10:27:01 DEBUG MainController:36 - In userexists method
2018-11-04 10:27:01 ERROR MainController:50 - Error userexists method- no user found
2018-11-04 10:27:02 DEBUG MainController:36 - In userexists method
2018-11-04 10:27:02 ERROR MainController:50 - Error userexists method- no user found
2018-11-04 10:27:02 DEBUG MainController:36 - In userexists method
2018-11-04 10:27:02 ERROR MainController:50 - Error userexists method- no user found
2018-11-04 10:27:02 DEBUG MainController:36 - In userexists method
2018-11-04 10:27:02 ERROR MainController:50 - Error userexists method- no user found
2018-11-04 10:27:02 DEBUG MainController:36 - In userexists method
2018-11-04 10:27:02 ERROR MainController:50 - Error userexists method- no user found
2018-11-04 10:27:02 DEBUG MainController:36 - In userexists method
2018-11-04 10:27:02 ERROR MainController:50 - Error userexists method- no user found
2018-11-04 10:27:03 DEBUG MainController:36 - In userexists method
2018-11-04 10:27:03 ERROR MainController:50 - Error userexists method- no user found
