2018-11-04 10:26:54 DEBUG MainController:36 - In userexists method
2018-11-04 10:26:54 ERROR MainController:50 - Error userexists method- no user found
2018-11-04 10:26:54 DEBUG MainController:36 - In userexists method
2018-11-04 10:26:54 ERROR MainController:50 - Error userexists method- no user found
2018-11-04 10:26:56 DEBUG MainController:36 - In userexists method
2018-11-04 10:26:56 ERROR MainController:50 - Error userexists method- no user found
2018-11-04 10:26:56 DEBUG MainController:36 - In userexists method
2018-11-04 10:26:56 ERROR MainController:50 - Error userexists method- no user found
2018-11-04 10:26:56 DEBUG MainController:36 - In userexists method
2018-11-04 10:26:56 ERROR MainController:50 - Error userexists method- no user found
2018-11-04 10:26:57 DEBUG MainController:36 - In userexists method
2018-11-04 10:26:57 ERROR MainController:50 - Error userexists method- no user found
2018-11-04 10:26:57 DEBUG MainController:36 - In userexists method
2018-11-04 10:26:57 ERROR MainController:50 - Error userexists method- no user found
2018-11-04 10:26:57 DEBUG MainController:36 - In userexists method
2018-11-04 10:26:57 ERROR MainController:50 - Error userexists method- no user found
2018-11-04 10:26:57 DEBUG MainController:36 - In userexists method
2018-11-04 10:26:57 ERROR MainController:50 - Error userexists method- no user found
2018-11-04 10:26:58 DEBUG MainController:36 - In userexists method
2018-11-04 10:26:58 ERROR MainController:50 - Error userexists method- no user found
2018-11-04 10:26:58 DEBUG MainController:36 - In userexists method
2018-11-04 10:26:58 ERROR MainController:50 - Error userexists method- no user found
2018-11-04 10:26:59 DEBUG MainController:36 - In userexists method
2018-11-04 10:26:59 ERROR MainController:50 - Error userexists method- no user found
2018-11-04 10:26:59 DEBUG MainController:36 - In userexists method
2018-11-04 10:26:59 ERROR MainController:50 - Error userexists method- no user found
2018-11-04 10:26:59 DEBUG MainController:36 - In userexists method
2018-11-04 10:26:59 ERROR MainController:50 - Error userexists method- no user found
